modelsim/transcript
# Compile of accumulator.sv was successful.
# Compile of alu.sv was successful.
# Compile of control.sv was successful.
# Compile of dat_mem.sv was successful.
# Compile of instr_ROM.sv was successful.
# Compile of PC.sv was successful.
# Compile of PC_LUT.sv was successful.
# Compile of reg_file.sv was successful.
# Compile of top_level.sv was successful.
# Compile of alu_tb.sv was successful.
# Compile of dat_mem_tb.sv was successful.
# Compile of top_level_tb.sv was successful.
# 12 compiles, 0 failed with no errors.
vsim -gui work.top_level_tb work.top_level work.reg_file work.PC_LUT work.PC work.instr_ROM work.dat_mem work.control work.alu work.Accumulator
# vsim -gui work.top_level_tb work.top_level work.reg_file work.PC_LUT work.PC work.instr_ROM work.dat_mem work.control work.alu work.Accumulator 
# Start time: 16:45:12 on Jun 11,2024
# Loading sv_std.std
# Loading work.top_level_tb
# Loading work.top_level
# Loading work.PC
# Loading work.PC_LUT
# Loading work.Accumulator
# Loading work.control
# Loading work.instr_ROM
# Loading work.alu
# Loading work.reg_file
# Loading work.dat_mem
run -all
# Current Opcode: 1111, Current inA:   x, Current inB:   x
# Time: 5 | regWriteFlag: 0 | memWriteFlag: 0 | aluBranchFlag: 0 | controlBranchFlag: 0 | branchFlag: 0 | memToRegFlag: 0 | immtoRegFlag: 0 | putEn: 1 | opEn: 0 | program_done: 0
# AC: time=                  15 putting   0 in r0
# Time: 15 | regWriteFlag: 0 | memWriteFlag: 0 | aluBranchFlag: 0 | controlBranchFlag: 0 | branchFlag: 0 | memToRegFlag: 0 | immtoRegFlag: 0 | putEn: 1 | opEn: 0 | program_done: 0
# Time: 25 | regWriteFlag: 0 | memWriteFlag: 0 | aluBranchFlag: 0 | controlBranchFlag: 0 | branchFlag: 0 | memToRegFlag: 0 | immtoRegFlag: 0 | putEn: 1 | opEn: 0 | program_done: 0
# Time: 35 | regWriteFlag: 0 | memWriteFlag: 0 | aluBranchFlag: 0 | controlBranchFlag: 0 | branchFlag: 0 | memToRegFlag: 0 | immtoRegFlag: 0 | putEn: 1 | opEn: 0 | program_done: 0
# Time: 45 | regWriteFlag: 0 | memWriteFlag: 0 | aluBranchFlag: 0 | controlBranchFlag: 0 | branchFlag: 0 | memToRegFlag: 0 | immtoRegFlag: 0 | putEn: 1 | opEn: 0 | program_done: 0
# Time: 55 | regWriteFlag: 0 | memWriteFlag: 0 | aluBranchFlag: 0 | controlBranchFlag: 0 | branchFlag: 0 | memToRegFlag: 0 | immtoRegFlag: 0 | putEn: 1 | opEn: 0 | program_done: 0
# Time: 65 | regWriteFlag: 0 | memWriteFlag: 0 | aluBranchFlag: 0 | controlBranchFlag: 0 | branchFlag: 0 | memToRegFlag: 0 | immtoRegFlag: 0 | putEn: 1 | opEn: 0 | program_done: 0
# Time: 75 | regWriteFlag: 0 | memWriteFlag: 0 | aluBranchFlag: 0 | controlBranchFlag: 0 | branchFlag: 0 | memToRegFlag: 0 | immtoRegFlag: 0 | putEn: 1 | opEn: 0 | program_done: 0
# Time: 85 | regWriteFlag: 0 | memWriteFlag: 0 | aluBranchFlag: 0 | controlBranchFlag: 0 | branchFlag: 0 | memToRegFlag: 0 | immtoRegFlag: 0 | putEn: 1 | opEn: 0 | program_done: 0
# Time: 95 | regWriteFlag: 0 | memWriteFlag: 0 | aluBranchFlag: 0 | controlBranchFlag: 0 | branchFlag: 0 | memToRegFlag: 0 | immtoRegFlag: 0 | putEn: 1 | opEn: 0 | program_done: 0
# Time: 105 | regWriteFlag: 0 | memWriteFlag: 0 | aluBranchFlag: 0 | controlBranchFlag: 0 | branchFlag: 0 | memToRegFlag: 0 | immtoRegFlag: 0 | putEn: 1 | opEn: 0 | program_done: 0
# PC: incrementing ctr:          1
# Time: 115 | regWriteFlag: 0 | memWriteFlag: 0 | aluBranchFlag: 0 | controlBranchFlag: 0 | branchFlag: 0 | memToRegFlag: 0 | immtoRegFlag: 0 | putEn: 1 | opEn: 0 | program_done: 0
# PC: incrementing ctr:          2
# Time: 125 | regWriteFlag: 0 | memWriteFlag: 0 | aluBranchFlag: 0 | controlBranchFlag: 0 | branchFlag: 0 | memToRegFlag: 0 | immtoRegFlag: 0 | putEn: 1 | opEn: 0 | program_done: 0
# PC: incrementing ctr:          3
# AC: time=                 135 putting   0 in r1
# Time: 135 | regWriteFlag: 1 | memWriteFlag: 0 | aluBranchFlag: 0 | controlBranchFlag: 0 | branchFlag: 0 | memToRegFlag: 0 | immtoRegFlag: 1 | putEn: 0 | opEn: 1 | program_done: 0
# PC: incrementing ctr:          4
# AC: time=                 145 resetting valid bits
# ** Info: RF: time=                 145 writing   0 to reg  0
#    Time: 145 ps  Scope: top_level_tb.tl.rf File: C:/Users/Max/Documents/GitHub/141architecture/modelsim/reg_file.sv Line: 25
# Current Opcode: 1111, Current inA:   0, Current inB:   x
# PC: incrementing ctr:          5
# AC: time=                 155 putting   2 in r0
# RF: core[0] changed to   0 at time                  155
# RF: core[0] =   0
# RF: core[1] =   x
# RF: core[2] =   x
# RF: core[3] =   x
# RF: core[4] =   x
# RF: core[5] =   x
# RF: core[6] =   x
# RF: core[7] =   x
# RF: core[8] =   x
# RF: core[9] =   x
# RF: core[10] =   x
# RF: core[11] =   x
# RF: core[12] =   x
# RF: core[13] =   x
# RF: core[14] =   x
# RF: core[15] =   x
# Time: 155 | regWriteFlag: 0 | memWriteFlag: 0 | aluBranchFlag: 0 | controlBranchFlag: 0 | branchFlag: 0 | memToRegFlag: 0 | immtoRegFlag: 0 | putEn: 1 | opEn: 0 | program_done: 0
# AC: time=                 165 putting   4 in r1
# Current Opcode: 1111, Current inA:   x, Current inB:   x
# AC: time=                 175 resetting valid bits
# ** Info: RF: time=                 175 writing   4 to reg  2
#    Time: 175 ps  Scope: top_level_tb.tl.rf File: C:/Users/Max/Documents/GitHub/141architecture/modelsim/reg_file.sv Line: 25
# Time: 175 | regWriteFlag: 1 | memWriteFlag: 0 | aluBranchFlag: 0 | controlBranchFlag: 0 | branchFlag: 0 | memToRegFlag: 0 | immtoRegFlag: 1 | putEn: 0 | opEn: 1 | program_done: 0
# RF: core[2] changed to   4 at time                  185
# RF: core[0] =   0
# RF: core[1] =   x
# RF: core[2] =   4
# RF: core[3] =   x
# RF: core[4] =   x
# RF: core[5] =   x
# RF: core[6] =   x
# RF: core[7] =   x
# RF: core[8] =   x
# RF: core[9] =   x
# RF: core[10] =   x
# RF: core[11] =   x
# RF: core[12] =   x
# RF: core[13] =   x
# RF: core[14] =   x
# RF: core[15] =   x
# Time: 185 | regWriteFlag: 1 | memWriteFlag: 0 | aluBranchFlag: 0 | controlBranchFlag: 0 | branchFlag: 0 | memToRegFlag: 0 | immtoRegFlag: 1 | putEn: 0 | opEn: 1 | program_done: 0
# Time: 195 | regWriteFlag: 1 | memWriteFlag: 0 | aluBranchFlag: 0 | controlBranchFlag: 0 | branchFlag: 0 | memToRegFlag: 0 | immtoRegFlag: 1 | putEn: 0 | opEn: 1 | program_done: 0
# Time: 205 | regWriteFlag: 1 | memWriteFlag: 0 | aluBranchFlag: 0 | controlBranchFlag: 0 | branchFlag: 0 | memToRegFlag: 0 | immtoRegFlag: 1 | putEn: 0 | opEn: 1 | program_done: 0
# Time: 215 | regWriteFlag: 1 | memWriteFlag: 0 | aluBranchFlag: 0 | controlBranchFlag: 0 | branchFlag: 0 | memToRegFlag: 0 | immtoRegFlag: 1 | putEn: 0 | opEn: 1 | program_done: 0
# Time: 225 | regWriteFlag: 1 | memWriteFlag: 0 | aluBranchFlag: 0 | controlBranchFlag: 0 | branchFlag: 0 | memToRegFlag: 0 | immtoRegFlag: 1 | putEn: 0 | opEn: 1 | program_done: 0
# Time: 235 | regWriteFlag: 1 | memWriteFlag: 0 | aluBranchFlag: 0 | controlBranchFlag: 0 | branchFlag: 0 | memToRegFlag: 0 | immtoRegFlag: 1 | putEn: 0 | opEn: 1 | program_done: 0
# Time: 245 | regWriteFlag: 1 | memWriteFlag: 0 | aluBranchFlag: 0 | controlBranchFlag: 0 | branchFlag: 0 | memToRegFlag: 0 | immtoRegFlag: 1 | putEn: 0 | opEn: 1 | program_done: 0
# Time: 255 | regWriteFlag: 1 | memWriteFlag: 0 | aluBranchFlag: 0 | controlBranchFlag: 0 | branchFlag: 0 | memToRegFlag: 0 | immtoRegFlag: 1 | putEn: 0 | opEn: 1 | program_done: 0
# Time: 265 | regWriteFlag: 1 | memWriteFlag: 0 | aluBranchFlag: 0 | controlBranchFlag: 0 | branchFlag: 0 | memToRegFlag: 0 | immtoRegFlag: 1 | putEn: 0 | opEn: 1 | program_done: 0
# PC: incrementing ctr:          6
# Time: 275 | regWriteFlag: 1 | memWriteFlag: 0 | aluBranchFlag: 0 | controlBranchFlag: 0 | branchFlag: 0 | memToRegFlag: 0 | immtoRegFlag: 1 | putEn: 0 | opEn: 1 | program_done: 0
# PC: incrementing ctr:          7
# Time: 285 | regWriteFlag: 0 | memWriteFlag: 0 | aluBranchFlag: 0 | controlBranchFlag: 0 | branchFlag: 0 | memToRegFlag: 0 | immtoRegFlag: 0 | putEn: 1 | opEn: 0 | program_done: 0
# PC: incrementing ctr:          8
# AC: time=                 295 putting   1 in r0
# Time: 295 | regWriteFlag: 0 | memWriteFlag: 0 | aluBranchFlag: 0 | controlBranchFlag: 0 | branchFlag: 0 | memToRegFlag: 0 | immtoRegFlag: 0 | putEn: 1 | opEn: 0 | program_done: 0
# PC: incrementing ctr:          9
# AC: time=                 305 putting   1 in r1
# Time: 305 | regWriteFlag: 1 | memWriteFlag: 0 | aluBranchFlag: 0 | controlBranchFlag: 0 | branchFlag: 0 | memToRegFlag: 0 | immtoRegFlag: 1 | putEn: 0 | opEn: 1 | program_done: 0
# PC: incrementing ctr:         10
# AC: time=                 315 resetting valid bits
# ** Info: RF: time=                 315 writing   1 to reg  1
#    Time: 315 ps  Scope: top_level_tb.tl.rf File: C:/Users/Max/Documents/GitHub/141architecture/modelsim/reg_file.sv Line: 25
# Current Opcode: 1111, Current inA:   1, Current inB:   x
# AC: time=                 325 putting  14 in r0
# RF: core[1] changed to   1 at time                  325
# RF: core[0] =   0
# RF: core[1] =   1
# RF: core[2] =   4
# RF: core[3] =   x
# RF: core[4] =   x
# RF: core[5] =   x
# RF: core[6] =   x
# RF: core[7] =   x
# RF: core[8] =   x
# RF: core[9] =   x
# RF: core[10] =   x
# RF: core[11] =   x
# RF: core[12] =   x
# RF: core[13] =   x
# RF: core[14] =   x
# RF: core[15] =   x
# Time: 325 | regWriteFlag: 0 | memWriteFlag: 0 | aluBranchFlag: 0 | controlBranchFlag: 0 | branchFlag: 0 | memToRegFlag: 0 | immtoRegFlag: 0 | putEn: 1 | opEn: 0 | program_done: 0
# AC: time=                 335 putting   0 in r1
# Current Opcode: 1111, Current inA:   0, Current inB:   x
# Time: 345 | regWriteFlag: 0 | memWriteFlag: 0 | aluBranchFlag: 0 | controlBranchFlag: 0 | branchFlag: 0 | memToRegFlag: 0 | immtoRegFlag: 0 | putEn: 1 | opEn: 0 | program_done: 0
# Time: 355 | regWriteFlag: 0 | memWriteFlag: 0 | aluBranchFlag: 0 | controlBranchFlag: 0 | branchFlag: 0 | memToRegFlag: 0 | immtoRegFlag: 0 | putEn: 1 | opEn: 0 | program_done: 0
# Time: 365 | regWriteFlag: 0 | memWriteFlag: 0 | aluBranchFlag: 0 | controlBranchFlag: 0 | branchFlag: 0 | memToRegFlag: 0 | immtoRegFlag: 0 | putEn: 1 | opEn: 0 | program_done: 0
# Time: 375 | regWriteFlag: 0 | memWriteFlag: 0 | aluBranchFlag: 0 | controlBranchFlag: 0 | branchFlag: 0 | memToRegFlag: 0 | immtoRegFlag: 0 | putEn: 1 | opEn: 0 | program_done: 0
# Time: 385 | regWriteFlag: 0 | memWriteFlag: 0 | aluBranchFlag: 0 | controlBranchFlag: 0 | branchFlag: 0 | memToRegFlag: 0 | immtoRegFlag: 0 | putEn: 1 | opEn: 0 | program_done: 0
# Time: 395 | regWriteFlag: 0 | memWriteFlag: 0 | aluBranchFlag: 0 | controlBranchFlag: 0 | branchFlag: 0 | memToRegFlag: 0 | immtoRegFlag: 0 | putEn: 1 | opEn: 0 | program_done: 0
# Time: 405 | regWriteFlag: 0 | memWriteFlag: 0 | aluBranchFlag: 0 | controlBranchFlag: 0 | branchFlag: 0 | memToRegFlag: 0 | immtoRegFlag: 0 | putEn: 1 | opEn: 0 | program_done: 0
# Time: 415 | regWriteFlag: 0 | memWriteFlag: 0 | aluBranchFlag: 0 | controlBranchFlag: 0 | branchFlag: 0 | memToRegFlag: 0 | immtoRegFlag: 0 | putEn: 1 | opEn: 0 | program_done: 0
# Time: 425 | regWriteFlag: 0 | memWriteFlag: 0 | aluBranchFlag: 0 | controlBranchFlag: 0 | branchFlag: 0 | memToRegFlag: 0 | immtoRegFlag: 0 | putEn: 1 | opEn: 0 | program_done: 0
# PC: incrementing ctr:         11
# Time: 435 | regWriteFlag: 0 | memWriteFlag: 0 | aluBranchFlag: 0 | controlBranchFlag: 0 | branchFlag: 0 | memToRegFlag: 0 | immtoRegFlag: 0 | putEn: 1 | opEn: 0 | program_done: 0
# PC: incrementing ctr:         12
# Time: 445 | regWriteFlag: 1 | memWriteFlag: 0 | aluBranchFlag: 0 | controlBranchFlag: 0 | branchFlag: 0 | memToRegFlag: 0 | immtoRegFlag: 1 | putEn: 0 | opEn: 1 | program_done: 0
# PC: incrementing ctr:         13
# AC: time=                 455 resetting valid bits
# ** Info: RF: time=                 455 writing   0 to reg 14
#    Time: 455 ps  Scope: top_level_tb.tl.rf File: C:/Users/Max/Documents/GitHub/141architecture/modelsim/reg_file.sv Line: 25
# Time: 455 | regWriteFlag: 0 | memWriteFlag: 0 | aluBranchFlag: 0 | controlBranchFlag: 0 | branchFlag: 0 | memToRegFlag: 0 | immtoRegFlag: 0 | putEn: 1 | opEn: 0 | program_done: 0
# PC: incrementing ctr:         14
# AC: time=                 465 putting  13 in r0
# RF: core[14] changed to   0 at time                  465
# RF: core[0] =   0
# RF: core[1] =   1
# RF: core[2] =   4
# RF: core[3] =   x
# RF: core[4] =   x
# RF: core[5] =   x
# RF: core[6] =   x
# RF: core[7] =   x
# RF: core[8] =   x
# RF: core[9] =   x
# RF: core[10] =   x
# RF: core[11] =   x
# RF: core[12] =   x
# RF: core[13] =   x
# RF: core[14] =   0
# RF: core[15] =   x
# Time: 465 | regWriteFlag: 0 | memWriteFlag: 0 | aluBranchFlag: 0 | controlBranchFlag: 0 | branchFlag: 0 | memToRegFlag: 0 | immtoRegFlag: 0 | putEn: 1 | opEn: 0 | program_done: 0
# PC: incrementing ctr:         15
# AC: time=                 475 putting   0 in r1
# Time: 475 | regWriteFlag: 0 | memWriteFlag: 0 | aluBranchFlag: 0 | controlBranchFlag: 0 | branchFlag: 0 | memToRegFlag: 0 | immtoRegFlag: 0 | putEn: 1 | opEn: 0 | program_done: 0
# AC: time=                 485 putting  14 in r2
# Current Opcode: 0101, Current inA:   0, Current inB:   0
# AC: time=                 495 resetting valid bits
# ** Info: RF: time=                 495 writing   0 to reg 13
#    Time: 495 ps  Scope: top_level_tb.tl.rf File: C:/Users/Max/Documents/GitHub/141architecture/modelsim/reg_file.sv Line: 25
# RF: core[15] changed to   0 at time                  495
# RF: core[0] =   0
# RF: core[1] =   1
# RF: core[2] =   4
# RF: core[3] =   x
# RF: core[4] =   x
# RF: core[5] =   x
# RF: core[6] =   x
# RF: core[7] =   x
# RF: core[8] =   x
# RF: core[9] =   x
# RF: core[10] =   x
# RF: core[11] =   x
# RF: core[12] =   x
# RF: core[13] =   x
# RF: core[14] =   0
# RF: core[15] =   0
# Time: 495 | regWriteFlag: 1 | memWriteFlag: 0 | aluBranchFlag: 0 | controlBranchFlag: 0 | branchFlag: 0 | memToRegFlag: 0 | immtoRegFlag: 0 | putEn: 0 | opEn: 1 | program_done: 0
# RF: core[13] changed to   0 at time                  505
# RF: core[0] =   0
# RF: core[1] =   1
# RF: core[2] =   4
# RF: core[3] =   x
# RF: core[4] =   x
# RF: core[5] =   x
# RF: core[6] =   x
# RF: core[7] =   x
# RF: core[8] =   x
# RF: core[9] =   x
# RF: core[10] =   x
# RF: core[11] =   x
# RF: core[12] =   x
# RF: core[13] =   0
# RF: core[14] =   0
# RF: core[15] =   0
# Time: 505 | regWriteFlag: 1 | memWriteFlag: 0 | aluBranchFlag: 0 | controlBranchFlag: 0 | branchFlag: 0 | memToRegFlag: 0 | immtoRegFlag: 0 | putEn: 0 | opEn: 1 | program_done: 0
# Time: 515 | regWriteFlag: 1 | memWriteFlag: 0 | aluBranchFlag: 0 | controlBranchFlag: 0 | branchFlag: 0 | memToRegFlag: 0 | immtoRegFlag: 0 | putEn: 0 | opEn: 1 | program_done: 0
# Time: 525 | regWriteFlag: 1 | memWriteFlag: 0 | aluBranchFlag: 0 | controlBranchFlag: 0 | branchFlag: 0 | memToRegFlag: 0 | immtoRegFlag: 0 | putEn: 0 | opEn: 1 | program_done: 0
# Time: 535 | regWriteFlag: 1 | memWriteFlag: 0 | aluBranchFlag: 0 | controlBranchFlag: 0 | branchFlag: 0 | memToRegFlag: 0 | immtoRegFlag: 0 | putEn: 0 | opEn: 1 | program_done: 0
# Time: 545 | regWriteFlag: 1 | memWriteFlag: 0 | aluBranchFlag: 0 | controlBranchFlag: 0 | branchFlag: 0 | memToRegFlag: 0 | immtoRegFlag: 0 | putEn: 0 | opEn: 1 | program_done: 0
# Time: 555 | regWriteFlag: 1 | memWriteFlag: 0 | aluBranchFlag: 0 | controlBranchFlag: 0 | branchFlag: 0 | memToRegFlag: 0 | immtoRegFlag: 0 | putEn: 0 | opEn: 1 | program_done: 0
# Time: 565 | regWriteFlag: 1 | memWriteFlag: 0 | aluBranchFlag: 0 | controlBranchFlag: 0 | branchFlag: 0 | memToRegFlag: 0 | immtoRegFlag: 0 | putEn: 0 | opEn: 1 | program_done: 0
# Time: 575 | regWriteFlag: 1 | memWriteFlag: 0 | aluBranchFlag: 0 | controlBranchFlag: 0 | branchFlag: 0 | memToRegFlag: 0 | immtoRegFlag: 0 | putEn: 0 | opEn: 1 | program_done: 0
# Time: 585 | regWriteFlag: 1 | memWriteFlag: 0 | aluBranchFlag: 0 | controlBranchFlag: 0 | branchFlag: 0 | memToRegFlag: 0 | immtoRegFlag: 0 | putEn: 0 | opEn: 1 | program_done: 0
# PC: incrementing ctr:         16
# Time: 595 | regWriteFlag: 1 | memWriteFlag: 0 | aluBranchFlag: 0 | controlBranchFlag: 0 | branchFlag: 0 | memToRegFlag: 0 | immtoRegFlag: 0 | putEn: 0 | opEn: 1 | program_done: 0
# PC: incrementing ctr:         17
# Current Opcode: 1111, Current inA:   0, Current inB:   0
# PC: incrementing ctr:         18
# AC: time=                 615 putting   0 in r0
# Time: 615 | regWriteFlag: 0 | memWriteFlag: 0 | aluBranchFlag: 0 | controlBranchFlag: 0 | branchFlag: 0 | memToRegFlag: 0 | immtoRegFlag: 0 | putEn: 1 | opEn: 0 | program_done: 0
# PC: incrementing ctr:         19
# AC: time=                 625 putting  13 in r1
# Time: 625 | regWriteFlag: 0 | memWriteFlag: 0 | aluBranchFlag: 0 | controlBranchFlag: 0 | branchFlag: 0 | memToRegFlag: 0 | immtoRegFlag: 0 | putEn: 1 | opEn: 0 | program_done: 0
# PC: incrementing ctr:         20
# AC: time=                 635 putting   1 in r2
# Current Opcode: 0101, Current inA:   0, Current inB:   1
# AC: time=                 645 resetting valid bits
# ** Info: RF: time=                 645 writing   1 to reg  0
#    Time: 645 ps  Scope: top_level_tb.tl.rf File: C:/Users/Max/Documents/GitHub/141architecture/modelsim/reg_file.sv Line: 25
# Current Opcode: 1111, Current inA:   0, Current inB:   1
# AC: time=                 655 putting   0 in r0
# RF: core[0] changed to   1 at time                  655
# RF: core[0] =   1
# RF: core[1] =   1
# RF: core[2] =   4
# RF: core[3] =   x
# RF: core[4] =   x
# RF: core[5] =   x
# RF: core[6] =   x
# RF: core[7] =   x
# RF: core[8] =   x
# RF: core[9] =   x
# RF: core[10] =   x
# RF: core[11] =   x
# RF: core[12] =   x
# RF: core[13] =   0
# RF: core[14] =   0
# RF: core[15] =   0
# Time: 655 | regWriteFlag: 0 | memWriteFlag: 0 | aluBranchFlag: 0 | controlBranchFlag: 0 | branchFlag: 0 | memToRegFlag: 0 | immtoRegFlag: 0 | putEn: 1 | opEn: 0 | program_done: 0
# Time: 665 | regWriteFlag: 0 | memWriteFlag: 0 | aluBranchFlag: 0 | controlBranchFlag: 0 | branchFlag: 0 | memToRegFlag: 0 | immtoRegFlag: 0 | putEn: 1 | opEn: 0 | program_done: 0
# Time: 675 | regWriteFlag: 0 | memWriteFlag: 0 | aluBranchFlag: 0 | controlBranchFlag: 0 | branchFlag: 0 | memToRegFlag: 0 | immtoRegFlag: 0 | putEn: 1 | opEn: 0 | program_done: 0
# Time: 685 | regWriteFlag: 0 | memWriteFlag: 0 | aluBranchFlag: 0 | controlBranchFlag: 0 | branchFlag: 0 | memToRegFlag: 0 | immtoRegFlag: 0 | putEn: 1 | opEn: 0 | program_done: 0
# Time: 695 | regWriteFlag: 0 | memWriteFlag: 0 | aluBranchFlag: 0 | controlBranchFlag: 0 | branchFlag: 0 | memToRegFlag: 0 | immtoRegFlag: 0 | putEn: 1 | opEn: 0 | program_done: 0
# Time: 705 | regWriteFlag: 0 | memWriteFlag: 0 | aluBranchFlag: 0 | controlBranchFlag: 0 | branchFlag: 0 | memToRegFlag: 0 | immtoRegFlag: 0 | putEn: 1 | opEn: 0 | program_done: 0
# Time: 715 | regWriteFlag: 0 | memWriteFlag: 0 | aluBranchFlag: 0 | controlBranchFlag: 0 | branchFlag: 0 | memToRegFlag: 0 | immtoRegFlag: 0 | putEn: 1 | opEn: 0 | program_done: 0
# Time: 725 | regWriteFlag: 0 | memWriteFlag: 0 | aluBranchFlag: 0 | controlBranchFlag: 0 | branchFlag: 0 | memToRegFlag: 0 | immtoRegFlag: 0 | putEn: 1 | opEn: 0 | program_done: 0
# Time: 735 | regWriteFlag: 0 | memWriteFlag: 0 | aluBranchFlag: 0 | controlBranchFlag: 0 | branchFlag: 0 | memToRegFlag: 0 | immtoRegFlag: 0 | putEn: 1 | opEn: 0 | program_done: 0
# Time: 745 | regWriteFlag: 0 | memWriteFlag: 0 | aluBranchFlag: 0 | controlBranchFlag: 0 | branchFlag: 0 | memToRegFlag: 0 | immtoRegFlag: 0 | putEn: 1 | opEn: 0 | program_done: 0
# PC: incrementing ctr:         21
# Time: 755 | regWriteFlag: 0 | memWriteFlag: 0 | aluBranchFlag: 0 | controlBranchFlag: 0 | branchFlag: 0 | memToRegFlag: 0 | immtoRegFlag: 0 | putEn: 1 | opEn: 0 | program_done: 0
# PC: incrementing ctr:         22
# Time: 765 | regWriteFlag: 0 | memWriteFlag: 0 | aluBranchFlag: 0 | controlBranchFlag: 0 | branchFlag: 0 | memToRegFlag: 0 | immtoRegFlag: 0 | putEn: 1 | opEn: 0 | program_done: 0
# PC: incrementing ctr:         23
# AC: time=                 775 putting   0 in r1
# Current Opcode: 1111, Current inA:   1, Current inB:   1
# PC: incrementing ctr:         24
# AC: time=                 785 putting   2 in r2
# Current Opcode: 0111, Current inA:   1, Current inB:   4
# PC: branching to:   12
# AC: time=                 795 resetting valid bits
# Current Opcode: 1111, Current inA:   1, Current inB:   4
# AC: time=                 805 putting  13 in r0
# Time: 805 | regWriteFlag: 0 | memWriteFlag: 0 | aluBranchFlag: 0 | controlBranchFlag: 0 | branchFlag: 0 | memToRegFlag: 0 | immtoRegFlag: 0 | putEn: 1 | opEn: 0 | program_done: 0
# AC: time=                 815 putting  13 in r1
# Current Opcode: 1111, Current inA:   0, Current inB:   4
# Time: 825 | regWriteFlag: 0 | memWriteFlag: 0 | aluBranchFlag: 0 | controlBranchFlag: 0 | branchFlag: 0 | memToRegFlag: 0 | immtoRegFlag: 0 | putEn: 1 | opEn: 0 | program_done: 0
# Time: 835 | regWriteFlag: 0 | memWriteFlag: 0 | aluBranchFlag: 0 | controlBranchFlag: 0 | branchFlag: 0 | memToRegFlag: 0 | immtoRegFlag: 0 | putEn: 1 | opEn: 0 | program_done: 0
# Time: 845 | regWriteFlag: 0 | memWriteFlag: 0 | aluBranchFlag: 0 | controlBranchFlag: 0 | branchFlag: 0 | memToRegFlag: 0 | immtoRegFlag: 0 | putEn: 1 | opEn: 0 | program_done: 0
# Time: 855 | regWriteFlag: 0 | memWriteFlag: 0 | aluBranchFlag: 0 | controlBranchFlag: 0 | branchFlag: 0 | memToRegFlag: 0 | immtoRegFlag: 0 | putEn: 1 | opEn: 0 | program_done: 0
# Time: 865 | regWriteFlag: 0 | memWriteFlag: 0 | aluBranchFlag: 0 | controlBranchFlag: 0 | branchFlag: 0 | memToRegFlag: 0 | immtoRegFlag: 0 | putEn: 1 | opEn: 0 | program_done: 0
# Time: 875 | regWriteFlag: 0 | memWriteFlag: 0 | aluBranchFlag: 0 | controlBranchFlag: 0 | branchFlag: 0 | memToRegFlag: 0 | immtoRegFlag: 0 | putEn: 1 | opEn: 0 | program_done: 0
# Time: 885 | regWriteFlag: 0 | memWriteFlag: 0 | aluBranchFlag: 0 | controlBranchFlag: 0 | branchFlag: 0 | memToRegFlag: 0 | immtoRegFlag: 0 | putEn: 1 | opEn: 0 | program_done: 0
# Time: 895 | regWriteFlag: 0 | memWriteFlag: 0 | aluBranchFlag: 0 | controlBranchFlag: 0 | branchFlag: 0 | memToRegFlag: 0 | immtoRegFlag: 0 | putEn: 1 | opEn: 0 | program_done: 0
# Time: 905 | regWriteFlag: 0 | memWriteFlag: 0 | aluBranchFlag: 0 | controlBranchFlag: 0 | branchFlag: 0 | memToRegFlag: 0 | immtoRegFlag: 0 | putEn: 1 | opEn: 0 | program_done: 0
# PC: incrementing ctr:         13
# Time: 915 | regWriteFlag: 0 | memWriteFlag: 0 | aluBranchFlag: 0 | controlBranchFlag: 0 | branchFlag: 0 | memToRegFlag: 0 | immtoRegFlag: 0 | putEn: 1 | opEn: 0 | program_done: 0
# PC: incrementing ctr:         14
# Time: 925 | regWriteFlag: 0 | memWriteFlag: 0 | aluBranchFlag: 0 | controlBranchFlag: 0 | branchFlag: 0 | memToRegFlag: 0 | immtoRegFlag: 0 | putEn: 1 | opEn: 0 | program_done: 0
# PC: incrementing ctr:         15
# AC: time=                 935 putting   0 in r2
# Current Opcode: 1111, Current inA:   0, Current inB:   1
# PC: incrementing ctr:         16
# Current Opcode: 0101, Current inA:   0, Current inB:   1
# PC: incrementing ctr:         17
# AC: time=                 955 resetting valid bits
# ** Info: RF: time=                 955 writing   1 to reg 13
#    Time: 955 ps  Scope: top_level_tb.tl.rf File: C:/Users/Max/Documents/GitHub/141architecture/modelsim/reg_file.sv Line: 25
# Current Opcode: 1111, Current inA:   1, Current inB:   1
# AC: time=                 965 putting   0 in r0
# RF: core[13] changed to   1 at time                  965
# RF: core[0] =   1
# RF: core[1] =   1
# RF: core[2] =   4
# RF: core[3] =   x
# RF: core[4] =   x
# RF: core[5] =   x
# RF: core[6] =   x
# RF: core[7] =   x
# RF: core[8] =   x
# RF: core[9] =   x
# RF: core[10] =   x
# RF: core[11] =   x
# RF: core[12] =   x
# RF: core[13] =   1
# RF: core[14] =   0
# RF: core[15] =   0
# Time: 965 | regWriteFlag: 0 | memWriteFlag: 0 | aluBranchFlag: 0 | controlBranchFlag: 0 | branchFlag: 0 | memToRegFlag: 0 | immtoRegFlag: 0 | putEn: 1 | opEn: 0 | program_done: 0
# AC: time=                 975 putting  13 in r1
# Time: 975 | regWriteFlag: 0 | memWriteFlag: 0 | aluBranchFlag: 0 | controlBranchFlag: 0 | branchFlag: 0 | memToRegFlag: 0 | immtoRegFlag: 0 | putEn: 1 | opEn: 0 | program_done: 0
# Time: 985 | regWriteFlag: 0 | memWriteFlag: 0 | aluBranchFlag: 0 | controlBranchFlag: 0 | branchFlag: 0 | memToRegFlag: 0 | immtoRegFlag: 0 | putEn: 1 | opEn: 0 | program_done: 0
# Time: 995 | regWriteFlag: 0 | memWriteFlag: 0 | aluBranchFlag: 0 | controlBranchFlag: 0 | branchFlag: 0 | memToRegFlag: 0 | immtoRegFlag: 0 | putEn: 1 | opEn: 0 | program_done: 0
# Time: 1005 | regWriteFlag: 0 | memWriteFlag: 0 | aluBranchFlag: 0 | controlBranchFlag: 0 | branchFlag: 0 | memToRegFlag: 0 | immtoRegFlag: 0 | putEn: 1 | opEn: 0 | program_done: 0
# Time: 1015 | regWriteFlag: 0 | memWriteFlag: 0 | aluBranchFlag: 0 | controlBranchFlag: 0 | branchFlag: 0 | memToRegFlag: 0 | immtoRegFlag: 0 | putEn: 1 | opEn: 0 | program_done: 0
# Time: 1025 | regWriteFlag: 0 | memWriteFlag: 0 | aluBranchFlag: 0 | controlBranchFlag: 0 | branchFlag: 0 | memToRegFlag: 0 | immtoRegFlag: 0 | putEn: 1 | opEn: 0 | program_done: 0
# Time: 1035 | regWriteFlag: 0 | memWriteFlag: 0 | aluBranchFlag: 0 | controlBranchFlag: 0 | branchFlag: 0 | memToRegFlag: 0 | immtoRegFlag: 0 | putEn: 1 | opEn: 0 | program_done: 0
# Time: 1045 | regWriteFlag: 0 | memWriteFlag: 0 | aluBranchFlag: 0 | controlBranchFlag: 0 | branchFlag: 0 | memToRegFlag: 0 | immtoRegFlag: 0 | putEn: 1 | opEn: 0 | program_done: 0
# Time: 1055 | regWriteFlag: 0 | memWriteFlag: 0 | aluBranchFlag: 0 | controlBranchFlag: 0 | branchFlag: 0 | memToRegFlag: 0 | immtoRegFlag: 0 | putEn: 1 | opEn: 0 | program_done: 0
